
Ejecutando: ./build/tp0 -n10 ./data/prueba-00
Corrida 1:
real 0.04
user 0.00
sys 0.01
Corrida 2:
real 0.02
user 0.00
sys 0.01
Corrida 3:
real 0.02
user 0.00
sys 0.01
Corrida 4:
real 0.02
user 0.00
sys 0.01
Corrida 5:
real 0.02
user 0.00
sys 0.01

Ejecutando: tail -n10 ./data/prueba-00
Corrida 1:
real 0.04
user 0.00
sys 0.02
Corrida 2:
real 0.02
user 0.00
sys 0.01
Corrida 3:
real 0.02
user 0.00
sys 0.01
Corrida 4:
real 0.03
user 0.00
sys 0.02
Corrida 5:
real 0.02
user 0.00
sys 0.01

Ejecutando: ./build/tp0 -n10 ./data/prueba-01
Corrida 1:
real 0.04
user 0.00
sys 0.01
Corrida 2:
real 0.02
user 0.00
sys 0.01
Corrida 3:
real 0.02
user 0.00
sys 0.01
Corrida 4:
real 0.04
user 0.00
sys 0.01
Corrida 5:
real 0.02
user 0.00
sys 0.01

Ejecutando: tail -n10 ./data/prueba-01
Corrida 1:
real 0.04
user 0.00
sys 0.01
Corrida 2:
real 0.02
user 0.00
sys 0.01
Corrida 3:
real 0.02
user 0.00
sys 0.01
Corrida 4:
real 0.02
user 0.00
sys 0.01
Corrida 5:
real 0.02
user 0.00
sys 0.01

Ejecutando: ./build/tp0 -n10 ./data/prueba-02
Corrida 1:
real 0.04
user 0.00
sys 0.02
Corrida 2:
real 0.02
user 0.00
sys 0.01
Corrida 3:
real 0.01
user 0.00
sys 0.01
Corrida 4:
real 0.03
user 0.00
sys 0.01
Corrida 5:
real 0.02
user 0.00
sys 0.01

Ejecutando: tail -n10 ./data/prueba-02
Corrida 1:
real 0.04
user 0.00
sys 0.02
Corrida 2:
real 0.02
user 0.00
sys 0.01
Corrida 3:
real 0.02
user 0.00
sys 0.01
Corrida 4:
real 0.05
user 0.00
sys 0.02
Corrida 5:
real 0.02
user 0.00
sys 0.01

Ejecutando: ./build/tp0 -n10 ./data/prueba-03
Corrida 1:
real 0.05
user 0.00
sys 0.02
Corrida 2:
real 0.03
user 0.00
sys 0.01
Corrida 3:
real 0.02
user 0.00
sys 0.01
Corrida 4:
real 0.04
user 0.00
sys 0.01
Corrida 5:
real 0.02
user 0.00
sys 0.01

Ejecutando: tail -n10 ./data/prueba-03
Corrida 1:
real 0.04
user 0.00
sys 0.02
Corrida 2:
real 0.02
user 0.00
sys 0.01
Corrida 3:
real 0.02
user 0.00
sys 0.01
Corrida 4:
real 0.02
user 0.00
sys 0.01
Corrida 5:
real 0.02
user 0.00
sys 0.01

Ejecutando: ./build/tp0 -n10 ./data/prueba-04
Corrida 1:
real 0.06
user 0.00
sys 0.02
Corrida 2:
real 0.02
user 0.00
sys 0.01
Corrida 3:
real 0.02
user 0.00
sys 0.01
Corrida 4:
real 0.05
user 0.00
sys 0.01
Corrida 5:
real 0.02
user 0.00
sys 0.01

Ejecutando: tail -n10 ./data/prueba-04
Corrida 1:
real 0.04
user 0.00
sys 0.01
Corrida 2:
real 0.02
user 0.00
sys 0.01
Corrida 3:
real 0.02
user 0.00
sys 0.01
Corrida 4:
real 0.04
user 0.00
sys 0.01
Corrida 5:
real 0.02
user 0.00
sys 0.01

Ejecutando: ./build/tp0 -n10 ./data/prueba-05
Corrida 1:
real 0.05
user 0.00
sys 0.01
Corrida 2:
real 0.02
user 0.00
sys 0.01
Corrida 3:
real 0.02
user 0.00
sys 0.01
Corrida 4:
real 0.02
user 0.00
sys 0.02
Corrida 5:
real 0.02
user 0.00
sys 0.01

Ejecutando: tail -n10 ./data/prueba-05
Corrida 1:
real 0.04
user 0.00
sys 0.01
Corrida 2:
real 0.02
user 0.00
sys 0.01
Corrida 3:
real 0.01
user 0.00
sys 0.01
Corrida 4:
real 0.02
user 0.00
sys 0.01
Corrida 5:
real 0.02
user 0.00
sys 0.01

Ejecutando: ./build/tp0 -n10 ./data/prueba-06
Corrida 1:
real 0.05
user 0.00
sys 0.02
Corrida 2:
real 0.02
user 0.00
sys 0.01
Corrida 3:
real 0.02
user 0.00
sys 0.01
Corrida 4:
real 0.02
user 0.00
sys 0.01
Corrida 5:
real 0.02
user 0.00
sys 0.01

Ejecutando: tail -n10 ./data/prueba-06
Corrida 1:
real 0.04
user 0.00
sys 0.01
Corrida 2:
real 0.02
user 0.00
sys 0.01
Corrida 3:
real 0.02
user 0.00
sys 0.01
Corrida 4:
real 0.01
user 0.00
sys 0.01
Corrida 5:
real 0.02
user 0.00
sys 0.01

Ejecutando: ./build/tp0 -n10 ./data/prueba-07
Corrida 1:
real 0.05
user 0.00
sys 0.01
Corrida 2:
real 0.02
user 0.00
sys 0.01
Corrida 3:
real 0.05
user 0.00
sys 0.02
Corrida 4:
real 0.02
user 0.00
sys 0.01
Corrida 5:
real 0.02
user 0.00
sys 0.01

Ejecutando: tail -n10 ./data/prueba-07
Corrida 1:
real 0.04
user 0.00
sys 0.01
Corrida 2:
real 0.02
user 0.00
sys 0.01
Corrida 3:
real 0.02
user 0.00
sys 0.01
Corrida 4:
real 0.02
user 0.00
sys 0.01
Corrida 5:
real 0.01
user 0.00
sys 0.01

Ejecutando: ./build/tp0 -n10 ./data/prueba-08
Corrida 1:
real 0.06
user 0.00
sys 0.01
Corrida 2:
real 0.02
user 0.00
sys 0.02
Corrida 3:
real 0.05
user 0.00
sys 0.02
Corrida 4:
real 0.03
user 0.00
sys 0.02
Corrida 5:
real 0.02
user 0.00
sys 0.01

Ejecutando: tail -n10 ./data/prueba-08
Corrida 1:
real 0.05
user 0.00
sys 0.01
Corrida 2:
real 0.02
user 0.00
sys 0.01
Corrida 3:
real 0.04
user 0.00
sys 0.02
Corrida 4:
real 0.02
user 0.00
sys 0.01
Corrida 5:
real 0.02
user 0.00
sys 0.01

Ejecutando: ./build/tp0 -n10 ./data/prueba-09
Corrida 1:
real 0.06
user 0.00
sys 0.02
Corrida 2:
real 0.03
user 0.00
sys 0.02
Corrida 3:
real 0.03
user 0.00
sys 0.02
Corrida 4:
real 0.04
user 0.00
sys 0.02
Corrida 5:
real 0.03
user 0.00
sys 0.02

Ejecutando: tail -n10 ./data/prueba-09
Corrida 1:
real 0.04
user 0.00
sys 0.01
Corrida 2:
real 0.02
user 0.00
sys 0.01
Corrida 3:
real 0.01
user 0.00
sys 0.01
Corrida 4:
real 0.01
user 0.00
sys 0.01
Corrida 5:
real 0.02
user 0.00
sys 0.01

Ejecutando: ./build/tp0 -n10 ./data/prueba-10
Corrida 1:
real 0.10
user 0.00
sys 0.03
Corrida 2:
real 0.03
user 0.00
sys 0.02
Corrida 3:
real 0.06
user 0.00
sys 0.02
Corrida 4:
real 0.03
user 0.00
sys 0.02
Corrida 5:
real 0.03
user 0.00
sys 0.02

Ejecutando: tail -n10 ./data/prueba-10
Corrida 1:
real 0.04
user 0.00
sys 0.01
Corrida 2:
real 0.02
user 0.00
sys 0.01
Corrida 3:
real 0.06
user 0.00
sys 0.02
Corrida 4:
real 0.02
user 0.00
sys 0.01
Corrida 5:
real 0.01
user 0.00
sys 0.01

Ejecutando: ./build/tp0 -n10 ./data/prueba-11
Corrida 1:
real 0.13
user 0.01
sys 0.04
Corrida 2:
real 0.06
user 0.00
sys 0.04
Corrida 3:
real 0.11
user 0.00
sys 0.04
Corrida 4:
real 0.05
user 0.00
sys 0.04
Corrida 5:
real 0.05
user 0.00
sys 0.04

Ejecutando: tail -n10 ./data/prueba-11
Corrida 1:
real 0.04
user 0.00
sys 0.01
Corrida 2:
real 0.04
user 0.00
sys 0.01
Corrida 3:
real 0.02
user 0.00
sys 0.01
Corrida 4:
real 0.02
user 0.00
sys 0.01
Corrida 5:
real 0.02
user 0.00
sys 0.01

Ejecutando: ./build/tp0 -n10 ./data/prueba-12
Corrida 1:
real 0.20
user 0.00
sys 0.08
Corrida 2:
real 0.08
user 0.00
sys 0.07
Corrida 3:
real 0.08
user 0.00
sys 0.06
Corrida 4:
real 0.08
user 0.01
sys 0.06
Corrida 5:
real 0.09
user 0.01
sys 0.06

Ejecutando: tail -n10 ./data/prueba-12
Corrida 1:
real 0.05
user 0.00
sys 0.01
Corrida 2:
real 0.02
user 0.00
sys 0.01
Corrida 3:
real 0.02
user 0.00
sys 0.01
Corrida 4:
real 0.01
user 0.00
sys 0.01
Corrida 5:
real 0.02
user 0.00
sys 0.01

Ejecutando: ./build/tp0 -n10 ./data/prueba-13
Corrida 1:
real 0.29
user 0.03
sys 0.10
Corrida 2:
real 0.14
user 0.04
sys 0.08
Corrida 3:
real 0.14
user 0.02
sys 0.11
Corrida 4:
real 0.14
user 0.01
sys 0.12
Corrida 5:
real 0.14
user 0.00
sys 0.12

Ejecutando: tail -n10 ./data/prueba-13
Corrida 1:
real 0.05
user 0.00
sys 0.02
Corrida 2:
real 0.02
user 0.00
sys 0.01
Corrida 3:
real 0.01
user 0.00
sys 0.01
Corrida 4:
real 0.01
user 0.00
sys 0.01
Corrida 5:
real 0.01
user 0.00
sys 0.01

Ejecutando: ./build/tp0 -n10 ./data/prueba-14
Corrida 1:
real 0.37
user 0.04
sys 0.22
Corrida 2:
real 0.29
user 0.06
sys 0.18
Corrida 3:
real 0.26
user 0.08
sys 0.16
Corrida 4:
real 0.34
user 0.06
sys 0.18
Corrida 5:
real 0.26
user 0.04
sys 0.19

Ejecutando: tail -n10 ./data/prueba-14
Corrida 1:
real 0.04
user 0.00
sys 0.01
Corrida 2:
real 0.02
user 0.00
sys 0.01
Corrida 3:
real 0.02
user 0.00
sys 0.01
Corrida 4:
real 0.02
user 0.00
sys 0.01
Corrida 5:
real 0.02
user 0.00
sys 0.01

Ejecutando: ./build/tp0 -n10 ./data/prueba-15
Corrida 1:
real 0.73
user 0.10
sys 0.38
Corrida 2:
real 0.50
user 0.12
sys 0.34
Corrida 3:
real 0.59
user 0.09
sys 0.39
Corrida 4:
real 0.50
user 0.13
sys 0.32
Corrida 5:
real 0.58
user 0.11
sys 0.35

Ejecutando: tail -n10 ./data/prueba-15
Corrida 1:
real 0.05
user 0.00
sys 0.01
Corrida 2:
real 0.02
user 0.00
sys 0.01
Corrida 3:
real 0.02
user 0.00
sys 0.01
Corrida 4:
real 0.02
user 0.00
sys 0.01
Corrida 5:
real 0.02
user 0.00
sys 0.01

Ejecutando: ./build/tp0 -n10 ./data/prueba-16
Corrida 1:
real 1.27
user 0.26
sys 0.67
Corrida 2:
real 1.03
user 0.27
sys 0.64
Corrida 3:
real 0.97
user 0.22
sys 0.67
Corrida 4:
real 1.07
user 0.21
sys 0.70
Corrida 5:
real 1.09
user 0.26
sys 0.66

Ejecutando: tail -n10 ./data/prueba-16
Corrida 1:
real 0.04
user 0.00
sys 0.01
Corrida 2:
real 0.02
user 0.00
sys 0.01
Corrida 3:
real 0.01
user 0.00
sys 0.01
Corrida 4:
real 0.02
user 0.00
sys 0.01
Corrida 5:
real 0.02
user 0.00
sys 0.01
